{
    "page": 1,
    "results": [
    {
        "id": 634649,
        "original_title": "Spider-Man: No Way Home",
        "poster_path": "/1g0dhYtq4irTY1GPXvft6k4YLjm.jpg",
        "title": "Spider-Man: No Way Home",
        "backdrop_path": "/q9wnyYMAyKhOvfycUERFNKTHEaL.jpg",
        "vote_average": 8.1
    }
],
"total_pages": 170,
"total_results": 3387
}